Drone Multispectral Image Classification Pipeline
…
Rows: 800
Columns: 2
$ class <chr> "soil", "soil", "soil", "soil", "soil", "soil", "soil", "soil", …
$ geom  <POINT [m]> POINT (286078.1 3733130), POINT (286044.1 3733002), POINT …

Code

print(training_samples)

Simple feature collection with 800 features and 1 field
Geometry type: POINT
Dimension:     XY
Bounding box:  xmin: 286007.3 ymin: 3732985 xmax: 286082.4 ymax: 3733130
Projected CRS: WGS 84 / UTM zone 17N
# A tibble: 800 × 2
   class               geom
   <chr>        <POINT [m]>
 1 soil  (286078.1 3733130)
 2 soil  (286044.1 3733002)
 3 soil  (286044.3 3733002)
 4 soil  (286050.4 3733001)
 5 soil  (286026.4 3733025)
 6 soil    (286078 3733128)
 7 soil  (286082.1 3733124)
 8 soil  (286009.3 3733047)
 9 soil  (286077.9 3733129)
10 soil  (286077.6 3733128)
# ℹ 790 more rows
…
